{
    "ImageIO.framework": 1,
    "CoreLocation.framework": 5,
    "AVFoundation.framework": 2,
    "CoreBluetooth.framework": 1,
    "CoreMotion.framework": 1,
    "Photos.framework": 1,
    "AddressBook.framework": 1,
    "EventKit.framework": 1,
    "Contacts.framework": 1,
    "UserNotifications.framework": 1,
    "AudioToolbox.framework": 1,
    "MapKit.framework": 1,
    "SystemConfiguration.framework": 1
}